Analysis of Happiness Score and Alcohol Consumption per Country
…
## # A tibble: 6 x 2
##   continent     `n_distinct(country)`
##   <chr>                         <int>
## 1 Africa                           41
## 2 Asia                             38
## 3 Europe                           40
## 4 North America                    12
## 5 Oceania                           2
## 6 South America                    10

# Now to analyze my data, I grouped by continent and created summary statistics for mean and standard deviation using pivot_longer and pivot_wider
sub_full %>% group_by(continent) %>% select(is.numeric) %>% summarise_all(funs(mean, sd, median)) %>% arrange(desc(Score_mean), .by_group = TRUE) %>% pivot_longer(contains("_")) %>% separate(name, into = c("variable", "statistic"), sep = "_(?=[^_]+$)") %>% pivot_wider(names_from = statistic, values_from = value)

## # A tibble: 24 x 5
##    continent     variable                   mean        sd  median
##    <chr>         <chr>                     <dbl>     <dbl>   <dbl>
##  1 Oceania       total_servings          501      62.2     501    
##  2 Oceania       Score                     7.27    0.0559    7.27 
##  3 Oceania       Generosity                0.331   0.00141   0.331
##  4 Oceania       Healthy life expectancy   1.03    0.00707   1.03 
##  5 Europe        total_servings          498.    138.      549    
##  6 Europe        Score                     6.22    0.955     6.17 
##  7 Europe        Generosity                0.163   0.0972    0.148
##  8 Europe        Healthy life expectancy   0.925   0.101     0.970
##  9 North America total_servings          272.    113.      279    
## 10 North America Score                     6.09    0.943     6.22 
## # ... with 14 more rows
…
